…
Data

library(tidyverse)
#videos
meta.data <- read_csv("data/2018_carrizo_camtrap_metadata.csv")
meta.data

## # A tibble: 160 x 13
##    rep    week date  mode  mesohabitat setuptime   lat  long burrows     x
##    <chr> <int> <chr> <chr> <chr>       <time>    <dbl> <dbl>   <int> <int>
##  1 PS101     1 10-M photo shrub       09:10      35.1 -120.       1   407
##  2 PS201     1 10-M photo shrub       09:17      35.1 -120.       1   507
##  3 PS301     1 10-M photo shrub       09:25      35.1 -120.       1   567
##  4 PS401     1 10-M photo shrub       09:30      35.1 -120.       1   337
##  5 PS501     1 10-M photo shrub       09:36      35.1 -120.       1   334
##  6 PS601     1 10-M photo shrub       09:40      35.1 -120.       1   366
##  7 PS701     1 10-M photo shrub       09:48      35.1 -120.       1   561
##  8 PS801     1 10-M photo shrub       09:52      35.1 -120.       1   362
##  9 PO101     1 10-M video open        09:10      35.1 -120.       1   407
## 10 PO201     1 10-M video open        09:17      35.1 -120.       1   507
## # ... with 150 more rows, and 3 more variables: y <int>, z <int>,
## #   notes <chr>

vids <- read_csv("data/2018_carrizo_camtrap_videos_2.csv")
vids

## # A tibble: 8,713 x 20
##     year recorder file.name total.duration. region site  date   week   day
##    <int> <chr>        <int> <time>           <chr>  <chr> <chr> <int> <int>
##  1  2018 mario     10010001 05'00"           CNM    Carr 11-M     1     1
##  2  2018 mario     10010002 05'00"           CNM    Carr 11-M     1     1
##  3  2018 mario     10010003 05'00"           CNM    Carr 11-M     1     1
##  4  2018 mario     10010004 05'00"           CNM    Carr 11-M     1     1
##  5  2018 mario     10010005 05'00"           CNM    Carr 11-M     1     1
##  6  2018 mario     10010006 05'00"           CNM    Carr 11-M     1     1
##  7  2018 mario     10010007 05'00"           CNM    Carr 11-M     1     1
##  8  2018 mario     10010008 05'00"           CNM    Carr 11-M     1     1
##  9  2018 mario     10010009 05'00"           CNM    Carr 11-M     1     1
## 10  2018 mario     10010010 05'00"           CNM    Carr 11-M     1     1
## # ... with 8,703 more rows, and 11 more variables: rep <chr>,
## #   microsite <chr>, video <int>, animal.hit <int>, RTU <chr>,
## #   time.block <chr>, actual.time <time>, start <time>, stop <time>,
## #   behavior <chr>, observation <chr>

vid.data <- left_join(vids, meta.data, by = "rep")
vid.data

## # A tibble: 8,713 x 32
##     year recorder file.name total.duration. region site  date.x week.x
##    <int> <chr>        <int> <time>           <chr>  <chr> <chr>   <int>
##  1  2018 mario     10010001 05'00"           CNM    Carr 11-May      1
##  2  2018 mario     10010002 05'00"           CNM    Carr 11-May      1
##  3  2018 mario     10010003 05'00"           CNM    Carr 11-May      1
##  4  2018 mario     10010004 05'00"           CNM    Carr 11-May      1
##  5  2018 mario     10010005 05'00"           CNM    Carr 11-May      1
##  6  2018 mario     10010006 05'00"           CNM    Carr 11-May      1
##  7  2018 mario     10010007 05'00"           CNM    Carr 11-May      1
##  8  2018 mario     10010008 05'00"           CNM    Carr 11-May      1
##  9  2018 mario     10010009 05'00"           CNM    Carr 11-May      1
## 10  2018 mario     10010010 05'00"           CNM    Carr 11-May      1
## # ... with 8,703 more rows, and 24 more variables: day <int>, rep <chr>,
## #   microsite <chr>, video <int>, animal.hit <int>, RTU <chr>,
## #   time.block <chr>, actual.time <time>, start <time>, stop <time>,
## #   behavior <chr>, observation <chr>, week.y <int>, date.y <chr>,
## #   mode <chr>, mesohabitat <chr>, setuptime <time>, lat <dbl>,
## #   long <dbl>, burrows <int>, x <int>, y <int>, z <int>, notes <chr>

#write_csv(vid.data, "data/test1.csv")

#stills
meta.data <- read_csv("data/2018_carrizo_camtrap_stills_metadata.csv")
meta.data

## # A tibble: 54 x 14
##    rep   cam.rep lat    long     X     y     z  time burrow `SD ID`  week
##    <chr>   <int> <chr> <dbl> <int> <int> <int> <int>  <int> <chr>   <int>
##  1 PAS1        1 35.1 -120.   425   381   170  1000      3 PS1         1
##  2 PAO1        1 35.1 -120.   425   381   170  1000      3 SD4         1
##  3 PAS2        2 35.1 -120.   310   256   154  1011      5 20          1
##  4 PAO2        2 35.1 -120.   310   256   154  1011      5 PO2         1
##  5 PAS3        3 35.1 -120.   244   222   106  1020      0 PO5         1
##  6 PAO3        3 35.1 -120.   244   222   106  1020      0 PS4         1
##  7 PAS4        4 35.1 -120.   286   198    86  1031      0 27T4        1
##  8 PAO4        4 35.1 -120.   286   198    86  1031      0 13          1
##  9 PAS5        5 35.1 -120.   430   243   153  1036      2 PS8         1
## 10 PAO5        5 35.1 -120.   430   243   153  1036      2 T43         1
## # ... with 44 more rows, and 3 more variables: `week letter` <chr>,
## #   shrub.open <chr>, mode.photo.video <chr>

stills <- read_csv("data/2018_carrizo_camtrap_stills.csv")
stills

## # A tibble: 14,007 x 21
##    rep    year region  site date  microsite `week letter`  week   day
##    <chr> <int> <chr>  <int> <chr> <chr>     <chr>         <int> <int>
##  1 PAO1   2018 CNM        4 1/17 open      A                 1     1
##  2 PAO1   2018 CNM        4 1/17 open      A                 1     1
##  3 PAO1   2018 CNM        4 1/17 open      A                 1     1
##  4 PAO1   2018 CNM        4 1/17 open      A                 1     1
##  5 PAO1   2018 CNM        4 1/18 open      A                 1     2
##  6 PAO1   2018 CNM        4 1/19 open      A                 1     3
##  7 PAO1   2018 CNM        4 1/20 open      A                 1     4
##  8 PAO1   2018 CNM        4 1/20 open      A                 1     4
##  9 PAO1   2018 CNM        4 1/20 open      A                 1     4
## 10 PAO1   2018 CNM        4 1/20 open      A                 1     4
## # ... with 13,997 more rows, and 12 more variables: cam.rep <int>,
## #   photo.rep <int>, animal <chr>, animal.capture <int>,
## #   latin.binomial <chr>, timeblock <chr>, night.day <chr>,
## #   actual.time <chr>, observations <chr>, temp <chr>, `shrub/open` <chr>,
## #   mode.photo.video <chr>

stills.data <- left_join(stills, meta.data, by = "rep")
stills.data

## # A tibble: 14,007 x 34
##    rep    year region  site date  microsite `week letter.x` week.x   day
##    <chr> <int> <chr>  <int> <chr> <chr>     <chr>            <int> <int>
##  1 PAO1   2018 CNM        4 1/17 open      A                    1     1
##  2 PAO1   2018 CNM        4 1/17 open      A                    1     1
##  3 PAO1   2018 CNM        4 1/17 open      A                    1     1
##  4 PAO1   2018 CNM        4 1/17 open      A                    1     1
##  5 PAO1   2018 CNM        4 1/18 open      A                    1     2
##  6 PAO1   2018 CNM        4 1/19 open      A                    1     3
##  7 PAO1   2018 CNM        4 1/20 open      A                    1     4
##  8 PAO1   2018 CNM        4 1/20 open      A                    1     4
##  9 PAO1   2018 CNM        4 1/20 open      A                    1     4
## 10 PAO1   2018 CNM        4 1/20 open      A                    1     4
## # ... with 13,997 more rows, and 25 more variables: cam.rep.x <int>,
## #   photo.rep <int>, animal <chr>, animal.capture <int>,
## #   latin.binomial <chr>, timeblock <chr>, night.day <chr>,
## #   actual.time <chr>, observations <chr>, temp <chr>, `shrub/open` <chr>,
## #   mode.photo.video.x <chr>, cam.rep.y <int>, lat <chr>, long <dbl>,
## #   X <int>, y <int>, z <int>, time <int>, burrow <int>, `SD ID` <chr>,
## #   week.y <int>, `week letter.y` <chr>, shrub.open <chr>,
## #   mode.photo.video.y <chr>

#write_csv(stills.data, "data/test2.csv")

#sodalake
meta.data <- read_csv("data/2018_sodalake_camtrap_metadata.csv")
meta.data

## # A tibble: 30 x 6
##     year region site             rep   lat  long
##    <int> <chr>  <chr>          <int> <dbl> <dbl>
##  1  2018 CNM    Swain Site Cam     1  35.1 -120.
##  2  2018 CNM    Swain Site Cam     2  35.1 -120.
##  3  2018 CNM    Swain Site Cam     3  35.1 -120.
##  4  2018 CNM    Swain Site Cam     4  35.1 -120.
##  5  2018 CNM    Swain Site Cam     5  35.1 -120.
##  6  2018 CNM    Swain Site Cam     6  35.1 -120.
##  7  2018 CNM    Swain Site Cam     7  35.1 -120.
##  8  2018 CNM    Swain Site Cam     8  35.1 -120.
##  9  2018 CNM    Swain Site Cam     9  35.1 -120.
## 10  2018 CNM    Swain Site Cam    10  35.1 -120.
## # ... with 20 more rows

sodalake <- read_csv("data/2018_sodalake_camtraps.csv")
sodalake

## # A tibble: 20,667 x 15
##     year region site  date  microsite   day   rep photo.rep animal.capture
##    <int> <chr>  <chr> <chr> <chr>     <int> <int>     <int>          <int>
##  1  2018 CNM    Carr 6/17 open          1     1         1              0
##  2  2018 CNM    Carr 6/19 open          2     1         2              0
##  3  2018 CNM    Carr 6/19 open          2     1         3              0
##  4  2018 CNM    Carr 6/20 open          3     1         4              0
##  5  2018 CNM    Carr 6/20 open          3     1         5              0
##  6  2018 CNM    Carr 6/20 open          3     1         6              1
##  7  2018 CNM    Carr 6/20 open          3     1         7              1
##  8  2018 CNM    Carr 6/20 open          3     1         8              1
##  9  2018 CNM    Carr 6/20 open          3     1         9              1
## 10  2018 CNM    Carr 6/20 open          3     1        10              1
## # ... with 20,657 more rows, and 6 more variables: animal <chr>,
## #   latin.bionomial <chr>, timeblock <chr>, night.day <chr>,
## #   actual.time <time>, observations <chr>

sodalake.data <- left_join(sodalake, meta.data, by = "rep")
sodalake.data

## # A tibble: 20,667 x 20
##    year.x region.x site.x date  microsite   day   rep photo.rep
##     <int> <chr>    <chr>  <chr> <chr>     <int> <int>     <int>
##  1   2018 CNM      Carri 6/17 open          1     1         1
##  2   2018 CNM      Carri 6/19 open          2     1         2
##  3   2018 CNM      Carri 6/19 open          2     1         3
##  4   2018 CNM      Carri 6/20 open          3     1         4
##  5   2018 CNM      Carri 6/20 open          3     1         5
##  6   2018 CNM      Carri 6/20 open          3     1         6
##  7   2018 CNM      Carri 6/20 open          3     1         7
##  8   2018 CNM      Carri 6/20 open          3     1         8
##  9   2018 CNM      Carri 6/20 open          3     1         9
## 10   2018 CNM      Carri 6/20 open          3     1        10
## # ... with 20,657 more rows, and 12 more variables: animal.capture <int>,
## #   animal <chr>, latin.bionomial <chr>, timeblock <chr>, night.day <chr>,
## #   actual.time <time>, observations <chr>, year.y <int>, region.y <chr>,
## #   site.y <chr>, lat <dbl>, long <dbl>
…
